{
  "data": [
    {
      "encodedCustNo": "a5h92m0",
      "name": "台灣積體電路製造股份有限公司(台積電)",
      "areaDesc": "新竹市",
      "logo": "https://static.104.com.tw/b_profile/cust_picture/1000/22099131000/logo.gif?v=20251029172504",
      "industryNo": "1001006002",
      "industryDesc": "半導體製造業",
      "capitalDesc": "資本額暫不提供",
      "employeeCountDesc": "員工數暫不提供",
      "profile": "台積公司是全世界最大的專業積體電路製造服務公司．\n\n台積公司在民國七十六年成立於台灣新竹科學工業園區，並開創了專業積體電路製造服務商業模式。\n\n台積公司以領先業界的製程技術及設計解決方案組合支援其全球客戶及夥伴生態系統的蓬勃發展，以此釋放全球半導體產業的創新。身為全球的企業公民，台積公司的營運範圍遍及亞洲、歐洲及北美。",
      "jobCount": 187,
      "isSaved": false,
      "isTracked": false,
      "isNewsNotify": false,
      "isDuplexFollowed": false,
      "followedJobCount": 0,
      "isCorporateIcon": true,
      "zone": {
        "上市櫃": "https://www.104.com.tw/company/search/?zone=16",
        "竹科": "https://www.104.com.tw/company/search/?newZone=1",
        "南科": "https://www.104.com.tw/company/search/?newZone=3"
      },
      "tagNames": [],
      "custSwitch": "on",
      "employerBrand": [],
      "jobCatTag": {},
      "labels": [
        "industry@ic_manufacturing",
        "foreigners@pt_fc_employer",
        "foreigners@full_fc_employer",
        "digital_talent@iot",
        "digital_talent@greentech",
        "digital_talent@SoftwareEngineer_top200",
        "HA@candidate_exp_custno_on",
        "digital_talent@ResearchEngineer_top200"
      ],
      "mainScore": null
    },
    {
      "encodedCustNo": "1a2x6blcv1",
      "name": "台積電機有限公司",
      "areaDesc": "台中市南屯區",
      "logo": "",
      "industryNo": "1011002001",
      "industryDesc": "空調水機電工程業",
      "capitalDesc": "資本額暫不提供",
      "employeeCountDesc": "員工數暫不提供",
      "profile": "我們重視每一位員工，除了有良好工作環境、也提供學習及成長的空間，歡迎優秀的朋友一起加入台積電機有限公司的工作行列。\r\n",
      "jobCount": 0,
      "isSaved": false,
      "isTracked": false,
      "isNewsNotify": false,
      "isDuplexFollowed": false,
      "followedJobCount": 0,
      "isCorporateIcon": false,
      "zone": {},
      "tagNames": [],
      "custSwitch": "alwaysOn",
      "employerBrand": [],
      "jobCatTag": {},
      "labels": [],
      "mainScore": null
    },
    {
      "encodedCustNo": "1a2x6bnjin",
      "name": "城市漢堡(楠梓台積電)_乾多多商行",
      "areaDesc": "高雄市前金區",
      "logo": "",
      "industryNo": "1016002001",
      "industryDesc": "餐館業",
      "capitalDesc": "資本額暫不提供",
      "employeeCountDesc": "員工數暫不提供",
      "profile": "我們重視每一位員工，除了有良好工作環境、也提供學習及成長的空間，歡迎優秀的朋友一起加入「乾多多商行」的工作行列。",
      "jobCount": 0,
      "isSaved": false,
      "isTracked": false,
      "isNewsNotify": false,
      "isDuplexFollowed": false,
      "followedJobCount": 0,
      "isCorporateIcon": false,
      "zone": {},
      "tagNames": [],
      "custSwitch": "alwaysOn",
      "employerBrand": [],
      "jobCatTag": {},
      "labels": [],
      "mainScore": null
    },
    {
      "encodedCustNo": "9ka2llc",
      "name": "中鼎集團_中鼎工程股份有限公司",
      "areaDesc": "台北市士林區",
      "logo": "https://static.104.com.tw/b_profile/cust_picture/2000/20817282000/logo.gif?v=20240826152832",
      "industryNo": "1011003001",
      "industryDesc": "建築及工程技術服務業",
      "capitalDesc": "資本額76億",
      "employeeCountDesc": "員工數8000人",
      "profile": "中鼎工程股份有限公司創立於西元1979年4月6日，總部設立於臺北市。數十年來，以豐富的技術經驗、穩健的財務與管理制度、精實整齊的人力資源以及卓越的品質口碑，執臺灣工程業界之牛耳，同時享譽國際。秉持專業、誠信、團隊、創新之企業文化精神，中鼎公司不斷蓄積能量，強化體質，致力拓展業務至全球市場，締造斐然佳績。目前於全球超過15個國家地區成立約40家關係企業，集團員工總數約8,000人。\n\n中鼎公司是臺灣最大也是唯一自工程規劃、設計、採購、製造、建造施工、監理到試車操作都能勝任的統包工程公司，素以承攬全球重大工程聞名。一路發展下來，除原有煉油、石化、化工等服務範圍之工程設計建造外，進而開拓電力、鋼鐵、儲運、交通、焚化爐、公共建設、及環境工程等領域；並成功自國外轉移工程技術於臺灣生根，成為國際知名工程公司指定的合作夥伴，展現傲人的成績。近年來，更積極地朝向國際化與多元化的經營目標邁進，業務穩定成長。中鼎公司治理良好，財務透明度高，資訊揭露公平、公正、公開，因而獲得外資青睞，目前外資持股比率攀升至約 52％。 \n\n此外，中鼎公司在服務品質提升、安全管理、健康照護及環境保護等方面亦不遺餘力。目前已通過ISO 9001: 2015品質管理系統、ISO 14001: 2015環境管理系統、OHSAS 18001: 2007職業安全衛生系統等國際驗證，並隨國際標準之改版持續維護管理系統之更新與驗證。通過TOSHMS: 2018臺灣職業安全衛生管理系統驗證，並於2010年通過行政院勞委會職業安全衛生管理系統績效認可，以及衛生署國民健康局健康職場自主認證，亦已順利通過ISO 9001:2015轉版驗證稽核，充分展現其成果已獲得政府及顧客之肯定與信任。 \n\n◎ 公司榮耀 ◎\n● 持續入圍DJSI(道瓊永續指數)台灣企業\n● 英國標準協會(BSI) 「永續卓越獎」\n● TCSA「十大永續典範獎」及GCSA等17獎項\n● SGS 「人才發展卓越獎」、「知識管理品質典範獎」、「職安衛績效管理典範獎」\n● 天下雜誌調查:\n-650大服務業工程承攬類第1名\n-天下CSR企業公民獎\n● 2019年ENR雜誌國際工程設計公司(International Design Firms)排名第80名、 \n    2019年ENR雜誌國際工程統包商 (International Contractors)排名第73名",
      "jobCount": 84,
      "isSaved": false,
      "isTracked": false,
      "isNewsNotify": false,
      "isDuplexFollowed": false,
      "followedJobCount": 0,
      "isCorporateIcon": true,
      "zone": {
        "上市櫃": "https://www.104.com.tw/company/search/?zone=16"
      },
      "tagNames": [
        "員工認股",
        "年終獎金",
        "三節獎金/禮品",
        "員工舒壓按摩",
        "結婚禮金",
        "生育津貼",
        "社團補助",
        "子女教育獎助學金",
        "旅遊補助",
        "社團活動",
        "員工停車位",
        "特約商店",
        "停車位",
        "伙食津貼",
        "員工團體保險"
      ],
      "custSwitch": "on",
      "employerBrand": [],
      "jobCatTag": {},
      "labels": [
        "c@wf8_company",
        "foreigners@foreigners_company",
        "c@wf30_company",
        "c@wf2_company",
        "foreigners@overseasStudents_company",
        "c@wf9_company",
        "c@wf1_company",
        "digital_talent@greentech",
        "c@wf28_company",
        "c@wf7_company",
        "c@wf18_company",
        "foreigners@full_fc_employer",
        "c@wf10_company",
        "c@wf4_company",
        "c@wf23_company"
      ],
      "mainScore": null
    },
    {
      "encodedCustNo": "a9pjy3k",
      "name": "信義房屋股份有限公司",
      "areaDesc": "台北市信義區",
      "logo": "https://static.104.com.tw/b_profile/cust_picture/0000/22354940000/logo.gif?v=20260421105628",
      "industryNo": "1011004001",
      "industryDesc": "不動產經營業",
      "capitalDesc": "資本額73億6800萬元",
      "employeeCountDesc": "員工數5000人",
      "profile": "信義房屋成立於1981年，過去40年我們致力打造「好交易」為目標，下個40年將聚焦以「家」的相關領域為核心，以「永續、好生活」為發展藍圖。\n\n信義房屋是ESG先行者、也是PropTech房地產科技的實踐家，我們持續優化人才培育計畫與薪酬福利制度，致力於讓每個夥伴都能在信義房屋發揮獨特價值，你的好，不需被年資綁架，我們會持續打造能發揮每個人最大潛能的職涯舞台！\n\n《業界頂標頂規培訓制度》\n信義房屋熱情歡迎大學畢業且無房仲經驗的菁英人才，體驗從零開始打遍天下無敵手的成就感！信義房屋提供「180天完整教育訓練」，由總部專業講師精心設計系統性培訓課程，整合AI虛實運用提升人才實戰能力，搭配「一對一師徒制」分享實務經驗，信義堅信，人才養成了，服務品質自然到位。\n\n《業界規模實力最大企業》\n→信義房屋為首家房仲業上市公司、實收資本額73.7億，穩健經營。\n→公司財務、資訊透明公開，信義房屋連續11年榮獲證交所公司治理評鑑前5%，與台積電、台灣大並列。\n→台灣公司治理100指數成分股，信義房屋為唯一入選的房仲業者。\n\n多年來信義房屋經營成效卓著，改變了產業生態，成為業界領導品牌，更贏得社會的信任。「提供良好環境，確保同仁獲得就業安全與成長」，是信義房屋一路走來不變的承諾。 從「以人為本」的思考出發，兼顧同仁在經濟上、個人發展上以及身心健康管理的均衡。我們以「吸引優秀人才」、 「營造友善職場」兩大主軸作為持續努力的方向，信義房屋推動以同仁為核心的各項施策，提升勞動環境，以達成我們的核心願景目標：「以人為本」，同仁不只是同仁。",
      "jobCount": 110,
      "isSaved": false,
      "isTracked": false,
      "isNewsNotify": false,
      "isDuplexFollowed": false,
      "followedJobCount": 0,
      "isCorporateIcon": true,
      "zone": {
        "上市櫃": "https://www.104.com.tw/company/search/?zone=16"
      },
      "tagNames": [
        "員工紅利",
        "員工認股",
        "年終獎金",
        "三節獎金/禮品",
        "專業證照獎金",
        "員工舒壓按摩",
        "生活工作諮詢",
        "結婚禮金",
        "生育津貼",
        "社團補助",
        "員工進修補助",
        "旅遊補助",
        "退職金提撥",
        "健身費用補助",
        "國外旅遊",
        "部門聚餐",
        "慶生會",
        "社團活動",
        "員工優惠",
        "伙食津貼",
        "員工團體保險"
      ],
      "custSwitch": "on",
      "employerBrand": [],
      "jobCatTag": {},
      "labels": [
        "c@wf7_company",
        "digital_talent@greentech",
        "c@wf35_company",
        "foreigners@chineseDiasporas_company",
        "c@wf31_company",
        "c@wf3_company",
        "c@wf4_company",
        "c@wf30_company",
        "digital_talent@Ecommerce",
        "HA@candidate_exp_custno_on",
        "c@wf32_company",
        "c@wf10_company",
        "foreigners@foreigners_company",
        "c@104parttime_cmprank_seemore",
        "foreigners@foreignStudents_company",
        "c@wf9_company",
        "c@wf34_company",
        "foreigners@overseasStudents_company",
        "c@wf28_company",
        "c@wf29_company",
        "c@wf1_company",
        "digital_talent@ProductManager_top200",
        "c@wf2_company"
      ],
      "mainScore": null
    },
    {
      "encodedCustNo": "10wuv3fs",
      "name": "SILICON LABORATORIES ASIA PACIFIC, LIMITED_香港商芯科實驗室亞太有限公司台灣分公司",
      "areaDesc": "新竹縣竹北市",
      "logo": "https://static.104.com.tw/b_profile/cust_picture/1000/80350921000/logo.gif?v=20220111134652",
      "industryNo": "1001006001",
      "industryDesc": "IC設計相關業",
      "capitalDesc": "資本額150億",
      "employeeCountDesc": "員工數1500人",
      "profile": "Silicon Labs 創立於1996年，總部设在德州奧斯汀，在全球擁有超過15個分支机构。\n\nSilicon Labs是一家無廠半導體設計公司，與多家業界頂尖製造商如台積電、日月光、矽品、京元电子等合作以完成製造、封裝和測試其開發的芯片。憑藉這些夥伴關係，使公司得以集中資源設計業界领先的物联网芯片及軟體开發。\n\nSilicon Labs長期透過多項業界首創的設計帶動廣大市場的轉型及升級。憑借基于CMOS混合訊號和射频芯片設計、軟體及系統集成之技術優勢，我們提供產品及其综合解決方案以協助客戶简化設計、降低成本並加速其產品上市。",
      "jobCount": 1,
      "isSaved": false,
      "isTracked": false,
      "isNewsNotify": false,
      "isDuplexFollowed": false,
      "followedJobCount": 0,
      "isCorporateIcon": false,
      "zone": {},
      "tagNames": [
        "員工紅利",
        "員工認股",
        "電信費補助",
        "員工團體保險"
      ],
      "custSwitch": "on",
      "employerBrand": [],
      "jobCatTag": {},
      "labels": [
        "industry@ic_design",
        "c@wf4_company",
        "digital_talent@iot",
        "c@wf7_company",
        "c@wf10_company",
        "c@wf9_company"
      ],
      "mainScore": null
    },
    {
      "encodedCustNo": "1a2x6bkj5x",
      "name": "(ASML)台灣艾司摩爾科技股份有限公司",
      "areaDesc": "新竹市",
      "logo": "https://static.104.com.tw/b_profile/cust_picture/9045/130000000119045/logo.gif?v=20260114104826",
      "industryNo": "1001006002",
      "industryDesc": "半導體製造業",
      "capitalDesc": "資本額18億8000萬元",
      "employeeCountDesc": "員工數4500人",
      "profile": "總部位於荷蘭的ASML (台灣艾司摩爾) 是全球最大晶片微影設備市場的翹楚，為半導體製造商提供微影設備及相關服務，英特爾、三星和台積電等全球頂尖的半導體廠皆為ASML的客戶。ASML是一個國際化的企業，2023年的全球銷售額逾276億歐元，研發投資金額達40億歐元，佔當年度總營收的14.5%，ASML的業務快速成長，躍升為全球市值最大的半導體設備公司。40年來，ASML透過和客戶及供應商的緊密合作，搭配上高效能的營運流程，以及來自全球的優秀員工，逐步開創了我們在晶片微影領域的技術領先地位，協助其設計研發及整合高階系統，開發可用於各類資訊科技產品、行動通訊及物聯網相關產品的晶片，簡單來說，您每天都在使用的電子產品都仰賴我們的設備與技術服務。 \n\nASML聚集全球頂尖人才來服務客戶 \n\n面對摩爾定律所帶來的技術挑戰，ASML 彙集了來自全球物理、電子、機電、軟體與精密技術領域最具有創造力的人才，不斷挑戰技術極限，讓終端消費者能夠用合理的價格買到更強大、更小巧、更便宜和更節能的電子設備，進而提升人類的生活品質。 \n\nGreat Place To Work \nASML致力於為員工打造最佳工作環境，讓全球優秀的工程師樂於在此工作、交流、學習和分享。ASML開放、尊重與創新導向的企業文化，不僅促進員工與同儕及主管間的率直討論、相互學習，更讓ASML能夠持續維持技術領先優勢。\n\n總部位於荷蘭的ASML (台灣艾司摩爾) 是全球最大晶片微影設備市場的翹楚，為半導體製造商提供微影設備及相關服務。在全球16個國家設有超過60個辦公室，員工逾42,000人，來自143個國家。ASML在台灣員工為4,500人，於新竹、台中、台南設有辦公室，並在林口設有智慧製造中心，負責機台翻修與量測設備生產，於台南則設有電子束檢測設備製造中心。\n\nASML Linkou Office - 桃園縣龜山區華亞科技園區科技六路59號 (No.59, Ke Ji 6th Rd., Hwa Ya Technology Park, Gueishan Dist, Taoyuan City)\nASML Hsinchu Office - 新竹市公道五路三段1號11樓 (11F, No. 1, Sec. 3, Gongdao 5th Rd., Hsinchu City)\nASML Taichung Office - 台中市西屯區市政路480號10F（10F., No. 480, Shizheng Rd., Xitun Dist., Taichung City )\nASML Tainan Office - 台南市新市區國際路13號C棟1樓  (1F, building C, No.13, Guoji Rd., Xinshi Dist., Tainan City)\nASML Tainan Factory - 台南市新市區大利一路9號 (No.9, Dali 1st Rd., Xinshi Dist., Tainan City)\n\nASML在阿姆斯特丹泛歐交易所及納斯達克上市，股票代碼＂ASML＂。更多關於ASML及其產品、職缺，請參閱 : www.asml.com\n\n",
      "jobCount": 201,
      "isSaved": false,
      "isTracked": false,
      "isNewsNotify": false,
      "isDuplexFollowed": false,
      "followedJobCount": 0,
      "isCorporateIcon": true,
      "zone": {
        "外商": "https://www.104.com.tw/company/search/?zone=4,5"
      },
      "tagNames": [],
      "custSwitch": "on",
      "employerBrand": [],
      "jobCatTag": {},
      "labels": [
        "c@wf10_company",
        "industry@ic_equipment",
        "c@wf9_company",
        "foreigners@chineseDiasporas_company",
        "c@wf17_company",
        "c@104parttime_cmprank_seemore",
        "c@wf4_company",
        "foreigners@pt_fc_employer",
        "c@wf7_company",
        "c@wf8_company",
        "foreigners@foreigners_company",
        "digital_talent@iot",
        "c@wf2_company",
        "c@wf19_company",
        "industry@ic_manufacturing",
        "c@wf34_company",
        "foreigners@full_fc_employer"
      ],
      "mainScore": null
    },
    {
      "encodedCustNo": "k46629s",
      "name": "光洋應用材料科技股份有限公司",
      "areaDesc": "台南市安南區",
      "logo": "https://static.104.com.tw/b_profile/cust_picture/2000/43787872000/logo.gif?v=20250925112715",
      "industryNo": "1002011010",
      "industryDesc": "其他金屬相關製造業",
      "capitalDesc": "資本額80億",
      "employeeCountDesc": "員工數1246人",
      "profile": "　　光洋應材創立於1978年，為全球規模最大「磁儲存媒體薄膜靶材製造廠」，致力推動綠色全循環經濟(circular economy)模式，以「新技術、新環保、新材料」因應未來大趨勢，成為ESG領航者。透過領先全球的高純度材料回收再製技術，成為半導體產業的策略合作夥伴，並為光電、資通、石化及消費性產業應用等提供關鍵性的原料、產品與整合型服務方案。主要產品包括：貴金屬化學品∕材料、薄膜濺鍍蒸鍍靶材、特用化學品及資源再生四大類。\n　　主要核心競爭力在於厚實的研發能力，擁有台灣環保署核發之氰化物電鍍廢液回收許可及唯一氰化銀化學品製造執照，更配合政府綠色產業與傳統產業高價值化政策，投資設立電子廢料、石化觸媒廢料及汽車觸媒廢料等的貴金屬回收精鍊廠，發展高附加價值與精密之貴金屬材料產品。\n　　目前光洋集團全球員工約有1,800名，在台灣、香港、中國大陸、歐洲、美洲各地設有辦事處及客戶服務中心，提供全球客戶完備的ICTS(Inside Chamber Total Solution)整合型價值統包服務。光洋應材的營運模式係整合其核心技術以及彈性製造與快速服務能力，不僅為全球客戶提供即時的創新、品質與服務，同時也建構市場最具成本效益的製造能力與動態服務。光洋應材將持續致力於提供獲得客戶肯定之產品技術與服務，以完整滿足客戶在貴金屬整體價值鏈的期盼與需求！\n\n【光洋應材相關報導】\n　(1)三立新聞-光洋應材打入台積電綠色供應鏈\n　https://www.youtube.com/watch?v=UUpHorppnvA\n　(2)遠見雜誌-「光洋應材」如何讓廢料重生、化身夢幻記憶體材料\n　https://reurl.cc/R0KdRn\n　(3)老謝看世界-靶材廠「煉金」躋身台積綠鏈 「城市採礦」3C廢料挖出金山銀山\n　https://www.youtube.com/watch?v=hlFNUbPJqZE\n【循環經濟相關報導】\n　(1)天下雜誌-循環經濟\n　https://topic.cw.com.tw/2016circularkoo\n　(2)經濟日報-光洋科攜手東台、通業技研 打造工具機智慧化生態系\n　https://reurl.cc/L489QL",
      "jobCount": 66,
      "isSaved": false,
      "isTracked": false,
      "isNewsNotify": false,
      "isDuplexFollowed": false,
      "followedJobCount": 0,
      "isCorporateIcon": true,
      "zone": {
        "上市櫃": "https://www.104.com.tw/company/search/?zone=16"
      },
      "tagNames": [
        "員工紅利",
        "年終獎金",
        "三節獎金/禮品",
        "特殊節日獎金禮品",
        "員工宿舍",
        "員工餐廳",
        "健身器材",
        "員工舒壓按摩",
        "結婚禮金",
        "生育津貼",
        "社團補助",
        "旅遊補助",
        "社團活動",
        "特約商店",
        "健身房",
        "停車位",
        "伙食津貼",
        "員工團體保險"
      ],
      "custSwitch": "on",
      "employerBrand": [],
      "jobCatTag": {},
      "labels": [
        "c@wf34_company",
        "c@wf3_company",
        "c@wf30_company",
        "industry@ic_material",
        "c@wf7_company",
        "c@wf16_company",
        "c@wf2_company",
        "digital_talent@greentech",
        "c@wf4_company",
        "c@wf18_company",
        "c@wf10_company",
        "c@wf28_company",
        "c@wf27_company",
        "foreigners@overseasStudents_company",
        "foreigners@foreigners_company",
        "c@wf9_company",
        "foreigners@foreignStudents_company",
        "c@wf1_company"
      ],
      "mainScore": null
    },
    {
      "encodedCustNo": "kixqgrk",
      "name": "美亞鋼管廠股份有限公司",
      "areaDesc": "台北市中山區",
      "logo": "https://static.104.com.tw/b_profile/cust_picture/0000/44680700000/logo.jpg?v=20260626151607",
      "industryNo": "1002011010",
      "industryDesc": "其他金屬相關製造業",
      "capitalDesc": "資本額22億2526萬元",
      "employeeCountDesc": "員工數330人",
      "profile": "美亞鋼管廠成立於1959年，為台灣一家專業鋼管製造公司-(股票代號2020)至今經營超過一甲子。「品質與服務」是美亞企業精神的傳承。美亞數十年來對台灣經濟發展有著不可磨滅的貢獻，雖為傳統產業，美亞不但立足台灣，亦拓展至越南及泰國的海外產線，服務東南亞國協等客戶，亦專注先進高端產品製程，除引進高品質製管設備，更增設三倍生產線，憑藉專業技術和高端人才，創造出「價值重於價格」的市場競爭力，深受供應商及客戶的信賴，讓美亞這個品牌成為市場的領頭羊。\n美亞不但在經營上不斷研發及引進最新設備，在管理思維上也以高品質、高效率為主軸。主要產品為各類碳鋼管、不銹鋼管及不銹鋼板材商品。從101大樓到民生住宅、從台積電廠房到捷運工程公共建設、從汽機車的精密管材到運動健身器材管配件，處處都有美亞的足跡。\n美亞從不紙上談兵，循序漸進的強化公司治理、員工福祉、自動化生產、AI輔助管理、ERP建置、ESG的落實，穩健的提升公司整體能效，兼容並具奠定永續發展路徑，也是美亞一路走來的“ＤＮＡ”。",
      "jobCount": 6,
      "isSaved": false,
      "isTracked": false,
      "isNewsNotify": false,
      "isDuplexFollowed": false,
      "followedJobCount": 0,
      "isCorporateIcon": false,
      "zone": {
        "上市櫃": "https://www.104.com.tw/company/search/?zone=16"
      },
      "tagNames": [
        "員工紅利",
        "年終獎金",
        "三節獎金/禮品",
        "結婚禮金",
        "子女教育獎助學金",
        "國內旅遊",
        "伙食津貼",
        "員工團體保險"
      ],
      "custSwitch": "on",
      "employerBrand": [],
      "jobCatTag": {},
      "labels": [
        "c@wf3_company",
        "c@wf4_company",
        "digital_talent@greentech",
        "c@wf10_company",
        "foreigners@foreigners_company_tick",
        "foreigners@overseasStudents_company_tick",
        "c@wf1_company",
        "c@wf23_company",
        "c@wf2_company",
        "c@wf7_company"
      ],
      "mainScore": null
    },
    {
      "encodedCustNo": "10xpppow",
      "name": "Kanto-PPC _關東鑫林科技股份有限公司",
      "areaDesc": "桃園市蘆竹區",
      "logo": "https://static.104.com.tw/b_profile/cust_picture/8000/80402738000/logo.png?v=20260611163619",
      "industryNo": "1002007001",
      "industryDesc": "化學原料製造業",
      "capitalDesc": "資本額10億",
      "employeeCountDesc": "員工數500人",
      "profile": "關東鑫林集團為全球電子化學材料領導廠商，提供半導體及光電產業製程所需之超高純度化學品。公司的行銷網路遍及全球半導體及平面顯示器大廠，更被台積電指定於美國設廠，進行全球化佈局。\n\n我們擁有傲視全球的實驗室儀器設備及科技化廠房，致力打造世界第一的半導體材料供應鏈，除了提供一貫高品質的電子化學產品之外，再添加開創性的服務元素，以客戶的角度出發，創造客製化的服務模式。\n\n20年來，我們經歷了技術導向、環境導向、客戶導向的幾個里程碑；未來，關東鑫林集團除將不斷強化核心技術，提供最佳的產品與服務，也希望為改善社會、環境、人類之生活盡一份心力，落實永續投資的概念，達到「綠色化學」的目標。\n\n總公司：338011 桃園市蘆竹區山鼻里機捷路二段935巷51號5樓(距捷運山鼻站約230公尺)\n桃園廠：338025 桃園市蘆竹區海湖東路379號(海湖工業區)\n雲林廠：640104 雲林縣斗六市科加路27號(雲林科技工業區)",
      "jobCount": 50,
      "isSaved": false,
      "isTracked": false,
      "isNewsNotify": false,
      "isDuplexFollowed": false,
      "followedJobCount": 0,
      "isCorporateIcon": true,
      "zone": {},
      "tagNames": [
        "年終獎金",
        "三節獎金/禮品",
        "特殊節日獎金禮品",
        "員工餐廳",
        "咖啡吧",
        "結婚禮金",
        "生育津貼",
        "交通津貼補助",
        "國內旅遊",
        "慶生會",
        "伙食津貼",
        "員工團體保險"
      ],
      "custSwitch": "on",
      "employerBrand": [],
      "jobCatTag": {},
      "labels": [
        "foreigners@foreigners_company_tick",
        "foreigners@foreigners_company",
        "c@wf8_company",
        "c@wf17_company",
        "digital_talent@greentech",
        "c@wf3_company",
        "c@wf26_company",
        "foreigners@overseasStudents_company_tick",
        "c@wf18_company",
        "c@wf7_company",
        "c@wf9_company",
        "c@wf2_company",
        "c@wf10_company",
        "c@wf30_company",
        "c@wf27_company",
        "c@wf1_company",
        "c@wf29_company"
      ],
      "mainScore": null
    }
  ],
  "metadata": {
    "pagination": {
      "count": 10,
      "total": 609,
      "currentPage": 1,
      "lastPage": 61
    }
  }
}
